# setting LC_ALL to "C"
# --> Including file '/afs/cern.ch/work/c/cattanem/private/cmakeuser/RecDev_HEAD/Rec/LumiAlgs/job/Lumi0Writer.py'
# <-- End of file '/afs/cern.ch/work/c/cattanem/private/cmakeuser/RecDev_HEAD/Rec/LumiAlgs/job/Lumi0Writer.py'
# applying configuration of LumiWriterConf
# WARNING: Using default tag dddb-20150522 for partition DDDB
# WARNING: Using default tag cond-20150527 for partition LHCBCOND
# WARNING: Using default tag tt-20110126 for partition DQFLAGS
ApplicationMgr    SUCCESS
====================================================================================================================================
                                                   Welcome to RecDev version HEAD
                                          running on lxplus0100.cern.ch on Mon Dec  7 13:42:36 2015
====================================================================================================================================
ApplicationMgr       INFO Application Manager Configured successfully
DetectorPersist...   INFO Added successfully Conversion service:XmlCnvSvc
DetectorDataSvc   SUCCESS Detector description database: conddb:/lhcb.xml
LumiSeq              INFO Member list: GaudiSequencer/writeLumiSeq
RndmGenSvc.Engine    INFO Generator engine type:CLHEP::RanluxEngine
RndmGenSvc.Engine    INFO Current Seed:1234567 Luxury:3
RndmGenSvc           INFO Using Random engine:HepRndm::Engine<CLHEP::RanluxEngine>
ToolSvc.Sequenc...   INFO This machine has a speed about   3.27 times the speed of a 2.8 GHz Xeon.
writeLumiSeq         INFO Member list: LoKi::ODINFilter/OdinTriggerTypes, HltLumiSummaryDecoder, GaudiSequencer/filterLumi, bankKiller/KillAll, FileIdBankWriter, LHCb::MDFWriter/MDFWriter
filterLumi           INFO OR Member list: FilterOnLumiSummary/LumiRandomFilter
KillAll           SUCCESS bankKiller : all banks of type 'ODIN' will be kept.
KillAll           SUCCESS bankKiller : all banks of type 'HltLumiSummary' will be kept.
KillAll           SUCCESS bankKiller : all banks of type 'HltRoutingBits' will be kept.
KillAll           SUCCESS bankKiller : all banks of type 'DAQ' will be kept.
EventSelector        INFO Stream:EventSelector.DataStreamTool_1 Def:DATAFILE='lfn:/lhcb/data/2012/RAW/FULL/LHCb/COLLISION12/114753/114753_0000000015.raw' SVC='LHCb::MDFSelector' OPT='READ'
HistogramPersis...WARNING Histograms saving not required.
ApplicationMgr       INFO Application Manager Initialized successfully
ApplicationMgr       INFO Application Manager Started successfully
EventSelector.D...   INFO Compression:0 Checksum:1
EventSelector     SUCCESS Reading Event record 1. Record number within stream 1: 1
EventPersistenc...   INFO Added successfully Conversion service:RootCnvSvc
EventPersistenc...   INFO Added successfully Conversion service:LHCb::RawDataCnvSvc
COOLConfSvc          INFO CORAL Connection Retrial Period set to 60s
COOLConfSvc          INFO CORAL Connection Retrial Time-Out set to 900s
automatic_LHCBCOND   INFO Connected to database "sqlite_file:LHCBCOND_Lumi_IOV.db/LHCBCOND"
automatic_LHCBCOND   INFO Using TAG ""
ONLINE_2012          INFO Connected to database "sqlite_file:/afs/cern.ch/lhcb/software/DEV/nightlies/DBASE/Det/SQLDDDB/v7r999/db/ONLINE-2012.db/ONLINE"
ONLINE_2012          INFO Using TAG ""
FileIdBankWriter     INFO RunInfo record: 14de0a1a-9890-11e1-95f3-002590121862
ApplicationMgr       INFO Application Manager Stopped successfully
OdinTriggerTypes  SUCCESS Number of counters : 1
 |    Counter                                      |     #     |    sum     | mean/eff^* | rms/err^*  |     min     |     max     |
 |*"#passed"                                       |      1000 |        204 |(  20.4000 +- 1.27430  )%|   -------   |   -------   |
HltLumiSummaryD...   INFO Average event size :    11.0 words
FileIdBankWriter     INFO number of files seen: 1
EventLoopMgr         INFO Histograms converted successfully according to request.
ToolSvc              INFO Removing all tools created by ToolSvc
ToolSvc.HltFactorySUCCESS Number of counters : 1
 |    Counter                                      |     #     |    sum     | mean/eff^* | rms/err^*  |     min     |     max     |
 | "# loaded from PYTHON"                          |         1 |          1 |     1.0000 |     0.0000 |      1.0000 |      1.0000 |
ToolSvc.Sequenc...   INFO --------------------------------------------------------------------------------------------------
ToolSvc.Sequenc...   INFO This machine has a speed about   3.27 times the speed of a 2.8 GHz Xeon.
ToolSvc.Sequenc...   INFO Algorithm          (millisec) |    <user> |   <clock> |      min       max | entries | total (s) |
ToolSvc.Sequenc...   INFO --------------------------------------------------------------------------------------------------
ToolSvc.Sequenc...   INFO writeLumiSeq                  |     0.014 |     0.043 |    0.009       2.3 |    1000 |     0.043 |
ToolSvc.Sequenc...   INFO   createODIN                  |     0.001 |     0.005 |    0.003       0.0 |    1000 |     0.005 |
ToolSvc.Sequenc...   INFO   OdinTriggerTypes            |     0.002 |     0.005 |    0.003       0.1 |    1000 |     0.005 |
ToolSvc.Sequenc...   INFO   HltLumiSummaryDecoder       |     0.010 |     0.015 |    0.011       0.3 |     204 |     0.003 |
ToolSvc.Sequenc...   INFO   filterLumi                  |     0.005 |     0.008 |    0.006       0.1 |     204 |     0.002 |
ToolSvc.Sequenc...   INFO     LumiRandomFilter          |     0.005 |     0.005 |    0.003       0.1 |     204 |     0.001 |
ToolSvc.Sequenc...   INFO   KillAll                     |     0.015 |     0.061 |    0.039       2.1 |     204 |     0.012 |
ToolSvc.Sequenc...   INFO   FileIdBankWriter            |     0.005 |     0.005 |    0.002       0.2 |     204 |     0.001 |
ToolSvc.Sequenc...   INFO   MDFWriter                   |     0.010 |     0.062 |    0.045       0.4 |     204 |     0.013 |
ToolSvc.Sequenc...   INFO --------------------------------------------------------------------------------------------------
ApplicationMgr       INFO Application Manager Finalized successfully
ApplicationMgr       INFO Application Manager Terminated successfully
